what,kind,bundleId,bundleVersion,description,time
stopped,bundle,com.google.appengine.eclipse.datatools,2.5.1.v201201120043-rel-r37,"com.google.appengine.eclipse.datatools",1340957628796
stopped,bundle,com.google.appengine.eclipse.sdkbundle,1.6.1.v201201120043r37,"com.google.appengine.eclipse.sdkbundle",1340957628796
stopped,bundle,com.google.gdt.eclipse.appengine.rpc,2.5.1.v201201120043-rel-r37,"com.google.gdt.eclipse.appengine.rpc",1340957628796
stopped,bundle,com.google.gdt.eclipse.gph.e36,2.5.1.v201201120043-rel-r37,"com.google.gdt.eclipse.gph.e36",1340957628796
stopped,bundle,com.google.gdt.eclipse.gph.hge,2.5.1.v201201120043-rel-r37,"com.google.gdt.eclipse.gph.hge",1340957628796
stopped,bundle,com.google.gdt.eclipse.gph.subclipse,2.5.1.v201201120043-rel-r37,"com.google.gdt.eclipse.gph.subclipse",1340957628796
stopped,bundle,com.google.gdt.eclipse.gph.subversive,2.5.1.v201201120043-rel-r37,"com.google.gdt.eclipse.gph.subversive",1340957628796
stopped,bundle,com.google.gdt.eclipse.suite.ext,2.5.1.v201201120043-rel-r37,"com.google.gdt.eclipse.suite.ext",1340957628796
stopped,bundle,com.google.gdt.eclipse.gph,2.5.1.v201201120043-rel-r37,"com.google.gdt.eclipse.gph",1340957628796
stopped,bundle,com.google.gdt.eclipse.maven.e37,2.5.1.v201201120043-rel-r37,"com.google.gdt.eclipse.maven.e37",1340957628796
stopped,bundle,com.google.gdt.eclipse.maven,2.5.1.v201201120043-rel-r37,"com.google.gdt.eclipse.maven",1340957628796
stopped,bundle,com.google.gdt.eclipse.suite,2.5.1.v201201120043-rel-r37,"com.google.gdt.eclipse.suite",1340957628796
stopped,bundle,com.google.gdt.eclipse.appsmarketplace,2.5.1.v201201120043-rel-r37,"com.google.gdt.eclipse.appsmarketplace",1340957628796
stopped,bundle,com.google.appengine.eclipse.core,2.5.1.v201201120043-rel-r37,"com.google.appengine.eclipse.core",1340957628796
stopped,bundle,com.google.gdt.eclipse.login,2.5.1.v201201120043-rel-r37,"com.google.gdt.eclipse.login",1340957628796
stopped,bundle,com.google.gdt.eclipse.managedapis,2.5.1.v201201120043-rel-r37,"com.google.gdt.eclipse.managedapis",1340957632810
stopped,bundle,com.google.gwt.eclipse.oophm,2.5.1.v201201120043-rel-r37,"com.google.gwt.eclipse.oophm",1340957632810
stopped,bundle,com.google.gwt.eclipse.sdkbundle,2.4.0.v201201120043-rel-r37,"com.google.gwt.eclipse.sdkbundle",1340957632810
stopped,bundle,com.google.gwt.eclipse.core,2.5.1.v201201120043-rel-r37,"com.google.gwt.eclipse.core",1340957632810
stopped,bundle,com.google.gdt.eclipse.core,2.5.1.v201201120043-rel-r37,"com.google.gdt.eclipse.core",1340957632810
stopped,bundle,com.google.gdt.eclipse.platform,2.5.1.v201201120043-rel-r37,"com.google.gdt.eclipse.platform",1340957632810
stopped,bundle,com.google.gdt.eclipse.platform.e37,2.5.1.v201201120043-rel-r37,"com.google.gdt.eclipse.platform.e37",1340957632810
stopped,bundle,org.eclipse.m2e.jdt,1.0.100.20110804-1717,"org.eclipse.m2e.jdt",1340957632810
activated,perspective,org.eclipse.jst.j2ee.ui,,"org.eclipse.jst.j2ee.J2EEPerspective",1340957659973
started,bundle,org.eclipse.osgi,3.7.1.R37x_v20110808-1106,"org.eclipse.osgi",1340957659973
started,bundle,org.eclipse.equinox.simpleconfigurator,1.0.200.v20110502-1955,"org.eclipse.equinox.simpleconfigurator",1340957659973
started,bundle,com.ibm.icu,4.4.2.v20110208,"com.ibm.icu",1340957659973
started,bundle,org.eclipse.compare,3.5.201.R37x_v20110817-0800,"org.eclipse.compare",1340957659973
started,bundle,org.eclipse.compare.core,3.5.200.I20110208-0800,"org.eclipse.compare.core",1340957659973
started,bundle,org.eclipse.core.contenttype,3.4.100.v20110423-0524,"org.eclipse.core.contenttype",1340957659973
started,bundle,org.eclipse.core.databinding.observable,1.4.0.I20110222-0800,"org.eclipse.core.databinding.observable",1340957659973
started,bundle,org.eclipse.core.expressions,3.4.300.v20110228,"org.eclipse.core.expressions",1340957659973
started,bundle,org.eclipse.core.filebuffers,3.5.200.v20110505-0800,"org.eclipse.core.filebuffers",1340957659973
started,bundle,org.eclipse.core.filesystem,1.3.100.v20110423-0524,"org.eclipse.core.filesystem",1340957659973
started,bundle,org.eclipse.core.jobs,3.5.100.v20110404,"org.eclipse.core.jobs",1340957659973
started,bundle,org.eclipse.core.net,1.2.100.I20110511-0800,"org.eclipse.core.net",1340957659989
started,bundle,org.eclipse.core.resources,3.7.100.v20110510-0712,"org.eclipse.core.resources",1340957659989
started,bundle,org.eclipse.core.runtime,3.7.0.v20110110,"org.eclipse.core.runtime",1340957659989
started,bundle,org.eclipse.core.runtime.compatibility,3.2.100.v20100505,"org.eclipse.core.runtime.compatibility",1340957659989
started,bundle,org.eclipse.core.runtime.compatibility.auth,3.2.200.v20110110,"org.eclipse.core.runtime.compatibility.auth",1340957659989
started,bundle,org.eclipse.emf.common,2.7.0.v20110912-0920,"org.eclipse.emf.common",1340957659989
started,bundle,org.eclipse.emf.common.ui,2.7.0.v20110913-1156,"org.eclipse.emf.common.ui",1340957659989
started,bundle,org.eclipse.emf.ecore,2.7.0.v20110912-0920,"org.eclipse.emf.ecore",1340957659989
started,bundle,org.eclipse.emf.ecore.xmi,2.7.0.v20110520-1406,"org.eclipse.emf.ecore.xmi",1340957659989
started,bundle,org.eclipse.emf.edit,2.7.1.v20110913-1526,"org.eclipse.emf.edit",1340957659989
started,bundle,org.eclipse.emf.edit.ui,2.7.0.v20110913-1156,"org.eclipse.emf.edit.ui",1340957659989
started,bundle,org.eclipse.epp.mpc.ui,1.1.1.I20110907-0947,"org.eclipse.epp.mpc.ui",1340957659989
started,bundle,org.eclipse.epp.usagedata.gathering,1.3.1.R201106061540,"org.eclipse.epp.usagedata.gathering",1340957659989
started,bundle,org.eclipse.epp.usagedata.recording,1.3.1.R201106061540,"org.eclipse.epp.usagedata.recording",1340957659989
started,bundle,org.eclipse.equinox.app,1.3.100.v20110321,"org.eclipse.equinox.app",1340957659989
started,bundle,org.eclipse.equinox.common,3.6.0.v20110523,"org.eclipse.equinox.common",1340957659989
started,bundle,org.eclipse.equinox.ds,1.3.1.R37x_v20110701,"org.eclipse.equinox.ds",1340957659989
started,bundle,org.eclipse.equinox.event,1.2.100.v20110502,"org.eclipse.equinox.event",1340957659989
started,bundle,org.eclipse.equinox.p2.core,2.1.0.v20110502-1955,"org.eclipse.equinox.p2.core",1340957659989
started,bundle,org.eclipse.equinox.p2.directorywatcher,1.0.300.v20110502-1955,"org.eclipse.equinox.p2.directorywatcher",1340957659989
started,bundle,org.eclipse.equinox.p2.engine,2.1.0.v20110511,"org.eclipse.equinox.p2.engine",1340957659989
started,bundle,org.eclipse.equinox.p2.metadata,2.1.0.v20110510,"org.eclipse.equinox.p2.metadata",1340957659989
started,bundle,org.eclipse.equinox.p2.metadata.repository,1.2.0.v20110511-1359,"org.eclipse.equinox.p2.metadata.repository",1340957659989
started,bundle,org.eclipse.equinox.p2.operations,2.1.0.v20110511-1821,"org.eclipse.equinox.p2.operations",1340957660005
started,bundle,org.eclipse.equinox.p2.reconciler.dropins,1.1.100.v20110510,"org.eclipse.equinox.p2.reconciler.dropins",1340957660005
started,bundle,org.eclipse.equinox.p2.repository,2.1.0.v20110601,"org.eclipse.equinox.p2.repository",1340957660005
started,bundle,org.eclipse.equinox.p2.ui.sdk.scheduler,1.0.100.v20110502-1955,"org.eclipse.equinox.p2.ui.sdk.scheduler",1340957660005
started,bundle,org.eclipse.equinox.p2.updatechecker,1.1.200.v20110502-1955,"org.eclipse.equinox.p2.updatechecker",1340957660005
started,bundle,org.eclipse.equinox.preferences,3.4.1.R37x_v20110725,"org.eclipse.equinox.preferences",1340957660005
started,bundle,org.eclipse.equinox.registry,3.5.101.R37x_v20110810-1611,"org.eclipse.equinox.registry",1340957660005
started,bundle,org.eclipse.equinox.security,1.1.1.R37x_v20110822-1018,"org.eclipse.equinox.security",1340957660005
started,bundle,org.eclipse.equinox.util,1.0.300.v20110502,"org.eclipse.equinox.util",1340957660005
started,bundle,org.eclipse.help,3.5.100.v20110426,"org.eclipse.help",1340957660005
started,bundle,org.eclipse.jdt.core,3.7.1.v_B76_R37x,"org.eclipse.jdt.core",1340957660005
started,bundle,org.eclipse.jdt.core.manipulation,1.4.0.v20110505-0800,"org.eclipse.jdt.core.manipulation",1340957660020
started,bundle,org.eclipse.jdt.ui,3.7.1.r371_v20110824-0800,"org.eclipse.jdt.ui",1340957660036
started,bundle,org.eclipse.jem.util,2.1.100.v201103021400,"org.eclipse.jem.util",1340957660036
started,bundle,org.eclipse.jface,3.7.0.I20110522-1430,"org.eclipse.jface",1340957660036
started,bundle,org.eclipse.jsch.core,1.1.300.I20110514-0800,"org.eclipse.jsch.core",1340957660036
started,bundle,org.eclipse.jst.j2ee.webservice,1.1.400.v201004110600,"org.eclipse.jst.j2ee.webservice",1340957660036
started,bundle,org.eclipse.jst.j2ee.webservice.ui,1.1.500.v201105122000,"org.eclipse.jst.j2ee.webservice.ui",1340957660036
started,bundle,org.eclipse.jst.ws.jaxws.utils,1.0.0.v201004171919,"org.eclipse.jst.ws.jaxws.utils",1340957660036
started,bundle,org.eclipse.mylyn.bugzilla.core,3.6.2.v20110903-0100,"org.eclipse.mylyn.bugzilla.core",1340957660036
started,bundle,org.eclipse.mylyn.bugzilla.ui,3.6.0.v20110608-1400,"org.eclipse.mylyn.bugzilla.ui",1340957660036
started,bundle,org.eclipse.mylyn.commons.identity,0.8.0.v20110608-1400,"org.eclipse.mylyn.commons.identity",1340957660036
started,bundle,org.eclipse.mylyn.commons.net,3.6.0.v20110608-1400,"org.eclipse.mylyn.commons.net",1340957660036
started,bundle,org.eclipse.mylyn.commons.ui,3.6.1.v20110720-0100,"org.eclipse.mylyn.commons.ui",1340957660036
started,bundle,org.eclipse.mylyn.context.core,3.6.1.v20110720-0100,"org.eclipse.mylyn.context.core",1340957660036
started,bundle,org.eclipse.mylyn.context.ui,3.6.0.v20110608-1400,"org.eclipse.mylyn.context.ui",1340957660036
started,bundle,org.eclipse.mylyn.monitor.ui,3.6.0.v20110608-1400,"org.eclipse.mylyn.monitor.ui",1340957660036
started,bundle,org.eclipse.mylyn.tasks.ui,3.6.2.v20110826-0100,"org.eclipse.mylyn.tasks.ui",1340957660036
started,bundle,org.eclipse.mylyn.team.ui,3.6.1.v20110825-0100,"org.eclipse.mylyn.team.ui",1340957660036
started,bundle,org.eclipse.search,3.7.0.v20110505-0800,"org.eclipse.search",1340957660036
started,bundle,org.eclipse.team.core,3.6.0.I20110525-0800,"org.eclipse.team.core",1340957660036
started,bundle,org.eclipse.team.cvs.core,3.3.400.I20110510-0800,"org.eclipse.team.cvs.core",1340957660036
started,bundle,org.eclipse.team.cvs.ui,3.3.400.I20110510-0800,"org.eclipse.team.cvs.ui",1340957660036
started,bundle,org.eclipse.team.ui,3.6.100.I20110525-0800,"org.eclipse.team.ui",1340957660036
started,bundle,org.eclipse.ui,3.7.0.I20110602-0100,"org.eclipse.ui",1340957660036
started,bundle,org.eclipse.ui.console,3.5.100.v20110511,"org.eclipse.ui.console",1340957660036
started,bundle,org.eclipse.ui.editors,3.7.0.v20110517-0800,"org.eclipse.ui.editors",1340957660036
started,bundle,org.eclipse.ui.forms,3.5.100.v20110425,"org.eclipse.ui.forms",1340957660036
started,bundle,org.eclipse.ui.ide,3.7.0.v20110809-1737,"org.eclipse.ui.ide",1340957660036
started,bundle,org.eclipse.ui.navigator,3.5.100.v20110809-2227,"org.eclipse.ui.navigator",1340957660036
started,bundle,org.eclipse.ui.navigator.resources,3.4.300.I20110421-1800,"org.eclipse.ui.navigator.resources",1340957660036
started,bundle,org.eclipse.ui.net,1.2.100.I20110511-0800,"org.eclipse.ui.net",1340957660036
started,bundle,org.eclipse.ui.views,3.6.0.I20110412-0800,"org.eclipse.ui.views",1340957660036
started,bundle,org.eclipse.ui.workbench,3.7.0.I20110519-0100,"org.eclipse.ui.workbench",1340957660036
started,bundle,org.eclipse.ui.workbench.texteditor,3.7.0.v20110505-0800,"org.eclipse.ui.workbench.texteditor",1340957660036
started,bundle,org.eclipse.update.configurator,3.3.100.v20100512,"org.eclipse.update.configurator",1340957660036
started,bundle,org.eclipse.update.core,3.2.500.v20110330,"org.eclipse.update.core",1340957660051
started,bundle,org.eclipse.update.scheduler,3.2.300.v20100512,"org.eclipse.update.scheduler",1340957660051
started,bundle,org.eclipse.wst.common.emf,1.2.100.v201101101900,"org.eclipse.wst.common.emf",1340957660051
started,bundle,org.eclipse.wst.common.emfworkbench.integration,1.2.101.v201107140600,"org.eclipse.wst.common.emfworkbench.integration",1340957660051
started,bundle,org.eclipse.wst.common.frameworks,1.2.101.v201107192200,"org.eclipse.wst.common.frameworks",1340957660051
started,bundle,org.eclipse.wst.common.project.facet.core,1.4.200.v201103170332,"org.eclipse.wst.common.project.facet.core",1340957660051
started,bundle,org.eclipse.wst.web,1.1.500.v201104251400,"org.eclipse.wst.web",1340957660051
started,bundle,org.tigris.subversion.clientadapter,1.5.3,"org.tigris.subversion.clientadapter",1340957660051
started,bundle,org.tigris.subversion.subclipse.core,1.4.8,"org.tigris.subversion.subclipse.core",1340957660051
started,bundle,org.tigris.subversion.subclipse.ui,1.4.8,"org.tigris.subversion.subclipse.ui",1340957660051
started,bundle,com.google.gdt.eclipse.designer.GXT,2.4.2.r37x201110181249,"com.google.gdt.eclipse.designer.GXT",1340957660051
started,bundle,com.google.gdt.eclipse.designer.SmartGWT,2.4.2.r37x201110181249,"com.google.gdt.eclipse.designer.SmartGWT",1340957660051
started,bundle,org.eclipse.wb.discovery.core,1.2.0.r37x201109270333,"org.eclipse.wb.discovery.core",1340957660051
started,bundle,org.eclipse.wb.discovery.ui,1.2.0.r37x201109270333,"org.eclipse.wb.discovery.ui",1340957660051
started,bundle,com.google.gdt.eclipse.core,2.5.1.v201201120043-rel-r37,"com.google.gdt.eclipse.core",1340957660051
started,bundle,com.google.gdt.eclipse.designer,2.5.0.r37x201112291029,"com.google.gdt.eclipse.designer",1340957660051
started,bundle,com.google.gdt.eclipse.login,2.5.1.v201201120043-rel-r37,"com.google.gdt.eclipse.login",1340957660051
started,bundle,com.google.gdt.eclipse.managedapis,2.5.1.v201201120043-rel-r37,"com.google.gdt.eclipse.managedapis",1340957660051
started,bundle,com.google.gdt.eclipse.suite.ext,2.5.1.v201201120043-rel-r37,"com.google.gdt.eclipse.suite.ext",1340957660051
started,bundle,org.eclipse.wb.core,1.2.0.r37x201112290923,"org.eclipse.wb.core",1340957660051
started,bundle,org.eclipse.wb.core.lib,1.2.0.r37x201112290923,"org.eclipse.wb.core.lib",1340957660051
os,sysinfo,,,"win32",1340957660051
arch,sysinfo,,,"x86",1340957660051
ws,sysinfo,,,"win32",1340957660051
locale,sysinfo,,,"da_DK",1340957660051
processors,sysinfo,,,"2",1340957660051
java.runtime.name,sysinfo,,,"Java(TM) SE Runtime Environment",1340957660051
java.runtime.version,sysinfo,,,"1.6.0_20-b02",1340957660051
java.specification.name,sysinfo,,,"Java Platform API Specification",1340957660051
java.specification.vendor,sysinfo,,,"Sun Microsystems Inc.",1340957660051
java.specification.version,sysinfo,,,"1.6",1340957660051
java.vendor,sysinfo,,,"Sun Microsystems Inc.",1340957660051
java.version,sysinfo,,,"1.6.0_20",1340957660051
java.vm.info,sysinfo,,,"mixed mode, sharing",1340957660051
java.vm.name,sysinfo,,,"Java HotSpot(TM) Client VM",1340957660051
java.vm.specification.name,sysinfo,,,"Java Virtual Machine Specification",1340957660051
java.vm.specification.vendor,sysinfo,,,"Sun Microsystems Inc.",1340957660051
java.vm.specification.version,sysinfo,,,"1.0",1340957660051
java.vm.vendor,sysinfo,,,"Sun Microsystems Inc.",1340957660051
java.vm.version,sysinfo,,,"16.3-b01",1340957660051
started,bundle,com.google.gdt.eclipse.designer.UiBinder,2.5.0.r37x201112291029,"com.google.gdt.eclipse.designer.UiBinder",1340957660098
deactivated,workbench,org.eclipse.ui.workbench,3.7.0.I20110519-0100,"",1340957688542
activated,workbench,org.eclipse.ui.workbench,3.7.0.I20110519-0100,"",1340957689417
closed,workbench,org.eclipse.ui.workbench,3.7.0.I20110519-0100,"",1340957689745
stopped,bundle,org.eclipse.jst.ws.axis.creation.ui,1.0.700.v201104070312,"org.eclipse.jst.ws.axis.creation.ui",1340957691463
stopped,bundle,org.eclipse.jst.ws.axis.consumption.ui,1.0.505.v201004211805,"org.eclipse.jst.ws.axis.consumption.ui",1340957691463
stopped,bundle,org.eclipse.jst.ws.axis.consumption.core,1.0.407.v201104071820,"org.eclipse.jst.ws.axis.consumption.core",1340957691463
stopped,bundle,org.eclipse.jst.ws.axis2.creation.ui,1.0.104.v201004211805,"org.eclipse.jst.ws.axis2.creation.ui",1340957691463
stopped,bundle,org.eclipse.jst.ws.axis2.consumption.ui,1.0.103.v201004211805,"org.eclipse.jst.ws.axis2.consumption.ui",1340957691479
stopped,bundle,org.eclipse.jst.ws.axis2.creation.core,1.0.106.v201004211805,"org.eclipse.jst.ws.axis2.creation.core",1340957691479
stopped,bundle,org.eclipse.jst.ws.axis2.consumption.core,1.0.105.v201004211805,"org.eclipse.jst.ws.axis2.consumption.core",1340957691479
stopped,bundle,org.eclipse.jst.ws.axis2.ui,1.0.303.v201003110431,"org.eclipse.jst.ws.axis2.ui",1340957691479
stopped,bundle,org.eclipse.jst.ws.axis2.core,1.0.204.v201004211805,"org.eclipse.jst.ws.axis2.core",1340957691479
stopped,bundle,org.eclipse.jst.ws.cxf.creation.ui,1.0.100.v201104022153,"org.eclipse.jst.ws.cxf.creation.ui",1340957691479
stopped,bundle,org.eclipse.jst.ws.creation.ui,1.0.609.v201103082016,"org.eclipse.jst.ws.creation.ui",1340957691479
stopped,bundle,org.eclipse.jst.ws.cxf.consumption.ui,1.0.0.v201003222311,"org.eclipse.jst.ws.cxf.consumption.ui",1340957691479
stopped,bundle,org.eclipse.jst.ws.consumption.ui,1.1.401.v201108240414,"org.eclipse.jst.ws.consumption.ui",1340957691479
stopped,bundle,org.eclipse.jst.ws.consumption,1.0.601.v201108230319,"org.eclipse.jst.ws.consumption",1340957691479
stopped,bundle,org.eclipse.jst.ws.cxf.consumption.core,1.0.0.v201003222311,"org.eclipse.jst.ws.cxf.consumption.core",1340957691479
stopped,bundle,org.eclipse.jst.ws.cxf.creation.core,1.0.100.v201104022153,"org.eclipse.jst.ws.cxf.creation.core",1340957691479
stopped,bundle,org.eclipse.jst.ws.cxf.ui,1.0.0.v201004171919,"org.eclipse.jst.ws.cxf.ui",1340957691479
stopped,bundle,org.eclipse.jst.ws.cxf.core,1.0.100.v201104022153,"org.eclipse.jst.ws.cxf.core",1340957691479
stopped,bundle,org.eclipse.jst.ws.uddiregistry,1.0.500.v201004211805,"org.eclipse.jst.ws.uddiregistry",1340957691479
stopped,bundle,org.eclipse.jst.ws.ui,1.0.403.v201004211805,"org.eclipse.jst.ws.ui",1340957691479
stopped,bundle,org.eclipse.jst.ws,1.0.509.v201108250610,"org.eclipse.jst.ws",1340957691479
stopped,bundle,org.eclipse.wst.ws.explorer,1.0.607.v201103082002,"org.eclipse.wst.ws.explorer",1340957691479
stopped,bundle,org.eclipse.wst.wsdl.ui,1.2.403.v201108240515,"org.eclipse.wst.wsdl.ui",1340957691479
stopped,bundle,org.eclipse.wst.ws.ui,1.1.200.v201004211805,"org.eclipse.wst.ws.ui",1340957691479
stopped,bundle,org.eclipse.wst.wsi.ui,1.0.502.v201104071820,"org.eclipse.wst.wsi.ui",1340957691479
stopped,bundle,org.eclipse.wst.wsi,1.0.401.v201104071820,"org.eclipse.wst.wsi",1340957691479
stopped,bundle,org.eclipse.wst.ws,1.1.203.v201004211805,"org.eclipse.wst.ws",1340957691479
stopped,bundle,org.eclipse.jst.j2ee.webservice.ui,1.1.500.v201105122000,"org.eclipse.jst.j2ee.webservice.ui",1340957691479
stopped,bundle,org.eclipse.jst.j2ee.webservice,1.1.400.v201004110600,"org.eclipse.jst.j2ee.webservice",1340957691479
stopped,bundle,org.eclipse.wst.ws.parser,1.0.403.v201004211805,"org.eclipse.wst.ws.parser",1340957691479
stopped,bundle,org.eclipse.jpt.dbws.eclipselink.ui,1.0.0.v201104110000,"org.eclipse.jpt.dbws.eclipselink.ui",1340957691479
stopped,bundle,org.eclipse.datatools.enablement.hsqldb.ui,1.0.0.v201108120600,"org.eclipse.datatools.enablement.hsqldb.ui",1340957691479
stopped,bundle,org.eclipse.datatools.enablement.ingres.ui,1.0.0.v201105270214,"org.eclipse.datatools.enablement.ingres.ui",1340957691479
stopped,bundle,org.eclipse.datatools.enablement.postgresql.ui,1.0.0.v200906020900,"org.eclipse.datatools.enablement.postgresql.ui",1340957691479
stopped,bundle,org.eclipse.datatools.enablement.sqlite.ui,1.0.0.v200906020900,"org.eclipse.datatools.enablement.sqlite.ui",1340957691479
stopped,bundle,org.eclipse.jpt.jpa.eclipselink.ui,2.0.1.v201108080010,"org.eclipse.jpt.jpa.eclipselink.ui",1340957691479
stopped,bundle,org.eclipse.jpt.jpa.ui,3.0.1.v201108080010,"org.eclipse.jpt.jpa.ui",1340957691495
stopped,bundle,org.eclipse.datatools.connectivity.db.generic.ui,1.0.1.v201004070709,"org.eclipse.datatools.connectivity.db.generic.ui",1340957691495
stopped,bundle,org.eclipse.datatools.connectivity.apache.derby.ui,1.0.3.v201007080903,"org.eclipse.datatools.connectivity.apache.derby.ui",1340957691495
stopped,bundle,org.eclipse.datatools.enablement.sybase.asa.schemaobjecteditor.examples,2.5.0.200810071,"org.eclipse.datatools.enablement.sybase.asa.schemaobjecteditor.examples",1340957691495
stopped,bundle,org.eclipse.datatools.enablement.sybase.asa.ui,1.0.1.v200906111150,"org.eclipse.datatools.enablement.sybase.asa.ui",1340957691495
stopped,bundle,org.eclipse.datatools.enablement.sybase.ase.ui,1.0.1.v200906020900,"org.eclipse.datatools.enablement.sybase.ase.ui",1340957691495
stopped,bundle,org.eclipse.datatools.enablement.sybase.ui,1.0.0.v200906090458,"org.eclipse.datatools.enablement.sybase.ui",1340957691495
stopped,bundle,org.eclipse.datatools.sqltools.data.ui,1.2.1.v201010270945,"org.eclipse.datatools.sqltools.data.ui",1340957691495
stopped,bundle,org.eclipse.datatools.connectivity.sqm.server.ui,1.1.100.v201009280455,"org.eclipse.datatools.connectivity.sqm.server.ui",1340957691495
stopped,bundle,org.eclipse.datatools.sqltools.ddlgen.ui,1.0.1.v201002270530,"org.eclipse.datatools.sqltools.ddlgen.ui",1340957691495
stopped,bundle,org.eclipse.datatools.sqltools.db.derby.ui,1.0.0.v200906020900,"org.eclipse.datatools.sqltools.db.derby.ui",1340957691495
stopped,bundle,org.eclipse.datatools.sqltools.db.generic.ui,1.0.0.v200906020900,"org.eclipse.datatools.sqltools.db.generic.ui",1340957691495
stopped,bundle,org.eclipse.datatools.sqltools.debugger.core.ui,1.0.0.v201003161000,"org.eclipse.datatools.sqltools.debugger.core.ui",1340957691495
stopped,bundle,org.eclipse.datatools.sqltools.routineeditor.ui,1.0.1.v201004060545,"org.eclipse.datatools.sqltools.routineeditor.ui",1340957691495
stopped,bundle,org.eclipse.datatools.sqltools.sqlbuilder,1.0.3.v201009131745,"org.eclipse.datatools.sqltools.sqlbuilder",1340957691495
stopped,bundle,org.eclipse.datatools.sqltools.debugger.core,1.0.1.v201005250945,"org.eclipse.datatools.sqltools.debugger.core",1340957691495
stopped,bundle,org.eclipse.datatools.sqltools.schemaobjecteditor.ui.pages,1.1.0.200810071,"org.eclipse.datatools.sqltools.schemaobjecteditor.ui.pages",1340957691495
stopped,bundle,org.eclipse.datatools.sqltools.schemaobjecteditor.ui,1.1.1.200810071,"org.eclipse.datatools.sqltools.schemaobjecteditor.ui",1340957691495
stopped,bundle,org.eclipse.datatools.sqltools.sqlscrapbook,1.0.1.v201005250945,"org.eclipse.datatools.sqltools.sqlscrapbook",1340957691495
stopped,bundle,org.eclipse.datatools.sqltools.sqleditor,1.0.2.v201009230800,"org.eclipse.datatools.sqltools.sqleditor",1340957691495
stopped,bundle,org.eclipse.datatools.sqltools.editor.core.ui,1.0.0.v201001150815,"org.eclipse.datatools.sqltools.editor.core.ui",1340957691495
stopped,bundle,org.eclipse.datatools.sqltools.tabledataeditor,1.0.1.v201005250945,"org.eclipse.datatools.sqltools.tabledataeditor",1340957691495
stopped,bundle,org.eclipse.datatools.connectivity.sqm.core.ui,1.2.0.v201002281800,"org.eclipse.datatools.connectivity.sqm.core.ui",1340957691495
stopped,bundle,org.eclipse.jst.j2ee.ejb.annotations.ui,1.1.200.v201004290730,"org.eclipse.jst.j2ee.ejb.annotations.ui",1340957691495
stopped,bundle,org.eclipse.datatools.connectivity.ui.dse,1.1.4.v201004270430,"org.eclipse.datatools.connectivity.ui.dse",1340957691495
stopped,bundle,org.eclipse.jst.j2ee.xdoclet.runtime,1.1.300.v201004280700,"org.eclipse.jst.j2ee.xdoclet.runtime",1340957691495
stopped,bundle,org.eclipse.jst.j2ee.ejb.annotations.xdoclet,1.2.200.v201103302125,"org.eclipse.jst.j2ee.ejb.annotations.xdoclet",1340957691495
stopped,bundle,org.eclipse.jst.jsf.apache.trinidad.tagsupport,1.1.200.v201104061711,"org.eclipse.jst.jsf.apache.trinidad.tagsupport",1340957691495
stopped,bundle,org.eclipse.jst.jsf.facesconfig.ui,1.2.2.v201103292152,"org.eclipse.jst.jsf.facesconfig.ui",1340957691495
stopped,bundle,org.eclipse.jst.jsf.facelet.ui,1.0.1.v201104032306,"org.eclipse.jst.jsf.facelet.ui",1340957691495
stopped,bundle,org.eclipse.jst.jsf.ui,1.3.2.v201104251204,"org.eclipse.jst.jsf.ui",1340957691495
stopped,bundle,org.eclipse.jst.pagedesigner.jsf.ui,1.2.100.v201104061711,"org.eclipse.jst.pagedesigner.jsf.ui",1340957691510
stopped,bundle,org.eclipse.jst.pagedesigner,1.3.103.v201109010833,"org.eclipse.jst.pagedesigner",1340957691510
stopped,bundle,org.eclipse.jst.jsf.common.ui,1.2.100.v201104061711,"org.eclipse.jst.jsf.common.ui",1340957691510
stopped,bundle,org.eclipse.pde.ua.ui,1.0.100.v20110516,"org.eclipse.pde.ua.ui",1340957691510
stopped,bundle,org.eclipse.datatools.connectivity.oda.template.ui,3.2.2.v201108260345,"org.eclipse.datatools.connectivity.oda.template.ui",1340957691510
stopped,bundle,org.eclipse.pde.api.tools.ui,1.0.301.v20110803_r371,"org.eclipse.pde.api.tools.ui",1340957691510
stopped,bundle,org.eclipse.pde.ds.ui,1.0.100.v20110516,"org.eclipse.pde.ds.ui",1340957691510
stopped,bundle,org.eclipse.pde.runtime,3.4.201.v20110819-0851,"org.eclipse.pde.runtime",1340957691510
stopped,bundle,org.eclipse.pde.ui.templates,3.4.400.v20110516,"org.eclipse.pde.ui.templates",1340957691510
stopped,bundle,org.eclipse.wb.rcp.GroupLayout,1.2.0.r37x201109270449,"org.eclipse.wb.rcp.GroupLayout",1340957691510
stopped,bundle,org.eclipse.wb.rcp.SWT_AWT,1.2.0.r37x201109270453,"org.eclipse.wb.rcp.SWT_AWT",1340957691510
stopped,bundle,org.eclipse.wb.rcp.databinding.emf,1.2.0.r37x201109270442,"org.eclipse.wb.rcp.databinding.emf",1340957691510
stopped,bundle,org.eclipse.wb.rcp.databinding.xwt,1.2.0.r37x201109270457,"org.eclipse.wb.rcp.databinding.xwt",1340957691510
stopped,bundle,org.eclipse.wb.rcp.databinding,1.2.0.r37x201109270442,"org.eclipse.wb.rcp.databinding",1340957691510
stopped,bundle,org.eclipse.wb.rcp.nebula,1.2.0.r37x201109270442,"org.eclipse.wb.rcp.nebula",1340957691510
stopped,bundle,org.eclipse.wb.rcp.swing2swt,1.2.0.r37x201109270442,"org.eclipse.wb.rcp.swing2swt",1340957691510
stopped,bundle,org.eclipse.wb.xwt,1.2.0.r37x201109270457,"org.eclipse.wb.xwt",1340957691510
stopped,bundle,org.eclipse.wb.rcp,1.2.0.r37x201109270442,"org.eclipse.wb.rcp",1340957691510
stopped,bundle,org.eclipse.pde.ui,3.6.100.v20110603,"org.eclipse.pde.ui",1340957691510
stopped,bundle,org.eclipse.ui.cheatsheets,3.4.100.v20110425,"org.eclipse.ui.cheatsheets",1340957691510
stopped,bundle,org.eclipse.help.ui,3.5.101.r37_20110819,"org.eclipse.help.ui",1340957691510
stopped,bundle,org.eclipse.help.webapp,3.6.0.v20110518,"org.eclipse.help.webapp",1340957691510
stopped,bundle,org.eclipse.epp.mpc.ui,1.1.1.I20110907-0947,"org.eclipse.epp.mpc.ui",1340957691510
stopped,bundle,org.eclipse.epp.usagedata.ui,1.3.1.R201106061540,"org.eclipse.epp.usagedata.ui",1340957691510
stopped,bundle,org.eclipse.ui.intro.universal,3.2.500.v20110510,"org.eclipse.ui.intro.universal",1340957691510
stopped,bundle,org.eclipse.wtp.epp.package.jee.intro,1.3.0.v201006142040,"org.eclipse.wtp.epp.package.jee.intro",1340957691510
stopped,bundle,org.eclipse.ui.intro,3.4.100.v20110425,"org.eclipse.ui.intro",1340957691510
stopped,bundle,org.eclipse.help.base,3.6.1.v201109091335,"org.eclipse.help.base",1340957691510
stopped,bundle,org.eclipse.equinox.http.jetty,2.0.100.v20110502,"org.eclipse.equinox.http.jetty",1340957691510
stopped,bundle,org.eclipse.wst.server.preview,1.1.100.v20091208,"org.eclipse.wst.server.preview",1340957691510
stopped,bundle,com.google.appengine.eclipse.datatools,2.5.1.v201201120043-rel-r37,"com.google.appengine.eclipse.datatools",1340957691526
stopped,bundle,com.google.appengine.eclipse.sdkbundle,1.6.1.v201201120043r37,"com.google.appengine.eclipse.sdkbundle",1340957691526
stopped,bundle,com.google.gdt.eclipse.appengine.rpc,2.5.1.v201201120043-rel-r37,"com.google.gdt.eclipse.appengine.rpc",1340957691526
